<?xml version="1.0" encoding="utf-8"?>
<!-- Generator: Adobe Illustrator 22.0.1, SVG Export Plug-In . SVG Version: 6.00 Build 0)  -->
<svg version="1.1" id="Слой_1" xmlns="http://www.w3.org/2000/svg" xmlns:xlink="http://www.w3.org/1999/xlink" x="0px" y="0px"
	 viewBox="0 0 448 448" style="enable-background:new 0 0 448 448;" xml:space="preserve">
<style type="text/css">
	.st0{fill:#50587F;}
</style>
<path class="st0" d="M254.8,29.6v390.5c0,16-12.9,29-29,29l0,0c-16,0-29-12.9-29-29V29.6c0-16,12.9-29,29-29l0,0
	C241.8,0.6,254.8,13.6,254.8,29.6z"/>
<path class="st0" d="M419.7,252.1H27.9c-15.6,0-28.3-12.7-28.3-28.3l0,0c0-15.6,12.7-28.3,28.3-28.3h391.8
	c15.6,0,28.3,12.7,28.3,28.3l0,0C448,239.4,435.3,252.1,419.7,252.1z"/>
</svg>
