<?xml version="1.0" encoding="utf-8"?>
<!-- Generator: Adobe Illustrator 22.0.1, SVG Export Plug-In . SVG Version: 6.00 Build 0)  -->
<svg version="1.1" id="Слой_1" xmlns="http://www.w3.org/2000/svg" xmlns:xlink="http://www.w3.org/1999/xlink" x="0px" y="0px"
	 viewBox="0 0 448 448" style="enable-background:new 0 0 448 448;" xml:space="preserve">
<style type="text/css">
	.st0{fill:#9B9BA3;}
</style>
<path class="st0" d="M25.7,25.3v397.4c0,6.5,5,10.6,9.1,7.6l268.3-198.7c4.4-3.2,4.4-11.9,0-15.2L34.8,17.7
	C30.6,14.7,25.7,18.8,25.7,25.3z"/>
</svg>
