<?xml version="1.0" encoding="utf-8"?>
<!-- Generator: Adobe Illustrator 22.0.1, SVG Export Plug-In . SVG Version: 6.00 Build 0)  -->
<svg version="1.1" id="Capa_1" xmlns="http://www.w3.org/2000/svg" xmlns:xlink="http://www.w3.org/1999/xlink" x="0px" y="0px"
	 viewBox="0 0 477.2 477.2" style="enable-background:new 0 0 477.2 477.2;" xml:space="preserve">
<style type="text/css">
	.st0{fill:#454360;stroke:#454360;stroke-width:13;stroke-miterlimit:10;}
</style>
<g>
	<path class="st0" d="M360.7,230.5L135.6,16.7c-5.3-5-13.8-5-19.1,0s-5.3,13.1,0,18.1L332,239.6L116.5,444.3c-5.3,5-5.3,13.1,0,18.1
		c2.6,2.5,6.1,3.8,9.5,3.8c3.4,0,6.9-1.2,9.5-3.8l225.1-213.9C365.9,243.7,365.9,235.5,360.7,230.5z"/>
</g>
</svg>
