<?xml version="1.0" encoding="utf-8"?>
<!-- Generator: Adobe Illustrator 22.0.1, SVG Export Plug-In . SVG Version: 6.00 Build 0)  -->
<svg version="1.1" id="Слой_1" xmlns="http://www.w3.org/2000/svg" xmlns:xlink="http://www.w3.org/1999/xlink" x="0px" y="0px"
	 viewBox="0 0 16.5 10.4" style="enable-background:new 0 0 16.5 10.4;" xml:space="preserve">
<style type="text/css">
	.st0{fill:#7B7B87;}
</style>
<title>downarrow</title>
<path class="st0" d="M8.5,9.3l7-7.7c0.2-0.2,0-0.5-0.2-0.5H1.4C1.1,1.2,1,1.5,1.1,1.6L8,9.3C8.1,9.5,8.3,9.5,8.5,9.3z"/>
</svg>
