<?xml version="1.0" encoding="utf-8"?>
<!-- Generator: Adobe Illustrator 22.0.1, SVG Export Plug-In . SVG Version: 6.00 Build 0)  -->
<svg version="1.1" id="Capa_1" xmlns="http://www.w3.org/2000/svg" xmlns:xlink="http://www.w3.org/1999/xlink" x="0px" y="0px"
	 viewBox="0 0 383.9 383.9" style="enable-background:new 0 0 383.9 383.9;" xml:space="preserve">
<style type="text/css">
	.st0{fill:#76788C;}
</style>
<g>
	<g>
		<g>
			<polygon class="st0" points="12.9,296.4 12.9,371 87.5,371 307.7,150.9 233.1,76.3 			"/>
			<path class="st0" d="M365.2,65.2l-46.4-46.5c-7.7-7.7-20.4-7.7-28.2,0l-36.4,36.4l74.6,74.6l36.4-36.4
				C372.9,85.6,372.9,73,365.2,65.2z"/>
		</g>
	</g>
</g>
</svg>
