<?xml version="1.0" encoding="utf-8"?>
<!-- Generator: Adobe Illustrator 22.0.1, SVG Export Plug-In . SVG Version: 6.00 Build 0)  -->
<svg version="1.1" id="Слой_1" xmlns="http://www.w3.org/2000/svg" xmlns:xlink="http://www.w3.org/1999/xlink" x="0px" y="0px"
	 viewBox="0 0 50 41.9" style="enable-background:new 0 0 50 41.9;" xml:space="preserve">
<style type="text/css">
	.st0{fill:none;stroke:#F6F6FD;stroke-width:2;stroke-miterlimit:10;}
</style>
<title>table</title>
<g id="Слой_1-2">
	<path class="st0" d="M5.7,2h28.5c1.7,0,3,1.1,3,2.5v24.9c0,1.4-1.3,2.5-3,2.5H5.7c-1.7-0.1-3-1.2-3-2.6V4.4C2.7,3.1,4,2,5.7,2z"/>
	<g id="Слой_1-2_1_">
		<path class="st0" d="M15.5,10H44c1.7,0,3,1.1,3,2.5v24.9c0,1.4-1.3,2.5-3,2.5H15.5c-1.7-0.1-3-1.2-3-2.6V12.5
			C12.4,11.2,13.7,10,15.5,10z"/>
	</g>
	<line class="st0" x1="13.3" y1="31" x2="36.4" y2="10.8"/>
	<line class="st0" x1="19.5" y1="31.9" x2="37.6" y2="16"/>
	<line class="st0" x1="12.2" y1="25" x2="29.3" y2="9.9"/>
	<line class="st0" x1="12.2" y1="18.2" x2="21.6" y2="9.8"/>
	<line class="st0" x1="27" y1="31.9" x2="37.6" y2="22.6"/>
</g>
</svg>
