<?xml version="1.0" encoding="utf-8"?>
<!-- Generator: Adobe Illustrator 22.0.1, SVG Export Plug-In . SVG Version: 6.00 Build 0)  -->
<svg version="1.1" id="Capa_1" xmlns="http://www.w3.org/2000/svg" xmlns:xlink="http://www.w3.org/1999/xlink" x="0px" y="0px"
	 viewBox="0 0 512 512" style="enable-background:new 0 0 512 512;" xml:space="preserve">
<style type="text/css">
	.st0{fill:#494968;stroke:#494968;stroke-width:7;stroke-miterlimit:10;}
</style>
<g>
	<g>
		<path class="st0" d="M499.2,249.9c-3.8-5.9-96.6-143.3-243.2-143.3C130.2,106.7,18.1,243.3,13.4,249.1c-3.2,4-3.2,9.8,0,13.8
			c4.7,5.8,116.8,142.4,242.6,142.4s237.9-136.6,242.6-142.4C501.6,259.2,501.8,253.9,499.2,249.9z M256,384
			C155.1,384,59.2,283.5,34.9,256C59.2,228.5,155,128,256,128c118,0,201.3,100.3,221.7,127.4C454.1,282.1,357.7,384,256,384z"/>
	</g>
</g>
<g>
	<g>
		<path class="st0" d="M256,170.7c-45.1,0-81.6,38.3-81.6,85.3s36.7,85.3,81.6,85.3s81.6-38.3,81.6-85.3S301.1,170.7,256,170.7z
			 M256,320c-33.8,0-61.3-28.7-61.3-64s27.5-64,61.3-64s61.3,28.7,61.3,64S289.8,320,256,320z"/>
	</g>
</g>
</svg>
