<?xml version="1.0" encoding="utf-8"?>
<!-- Generator: Adobe Illustrator 22.0.1, SVG Export Plug-In . SVG Version: 6.00 Build 0)  -->
<svg version="1.1" id="Capa_1" xmlns="http://www.w3.org/2000/svg" xmlns:xlink="http://www.w3.org/1999/xlink" x="0px" y="0px"
	 viewBox="0 0 507.3 507.3" style="enable-background:new 0 0 507.3 507.3;" xml:space="preserve">
<style type="text/css">
	.st0{fill:#F6F6FD;}
</style>
<g>
	<g>
		<g>
			<path class="st0" d="M413.5,17l-21.1,21.1l34.2,34.2h-23.7c-64.3,0.1-122.6,37.7-149.3,96.2c-26.7-58.5-85-96.1-149.3-96.2H80.7
				l34.2-34.2L93.8,17L23.6,87.3l70.3,70.3l21.1-21.1l-34.2-34.2h23.7c74.2,0.1,134.3,60.2,134.3,134.3v242h29.9v-242
				c0.1-74.2,60.2-134.3,134.3-134.3h23.7l-34.2,34.2l21.1,21.1l70.3-70.3L413.5,17z"/>
		</g>
	</g>
</g>
</svg>
